{
    "name": "advancedrocketry:alien",
    "mod": "advancedrocketry",
    "sapling": {
        "name": "advancedrocketry:aliensapling",
        "data": 0
    },
    "growTimeMultiplier": 1.5,
    "drops": [
        {
            "name": "advancedrocketry:alienwood",
            "data": 0,
            "type": "WOOD"
        },
        {
            "name": "advancedrocketry:alienleaves",
            "data": 0,
            "type": "LEAVES"
        },
        {
            "name": "advancedrocketry:aliensapling",
            "data": 0,
            "type": "SAPLING"
		}
    ],
	"compatibleSoilTags": ["dirt"]
}