{
    "name": "thebetweenlands:sap_tree",
    "mod": "thebetweenlands",
    "sapling": {
        "name": "thebetweenlands:sapling_sap",
        "data": 0
    },
    "growTimeMultiplier": 1.5,
    "drops": [
        {
            "name": "thebetweenlands:sap_ball",
            "data": 0,
            "type": "WOOD"
        },
        {
            "name": "thebetweenlands:leaves_sap_tree",
            "data": 0,
            "type": "LEAVES"
        },
        {
            "name": "thebetweenlands:sapling_sap",
            "data": 0,
            "type": "SAPLING"
		}
    ],
	"compatibleSoilTags": ["dirt"]
}