{
    "name": "thebetweenlands:weedwood",
    "mod": "thebetweenlands:",
    "sapling": {
        "name": "thebetweenlands:sapling_weedwood",
        "data": 0
    },
    "growTimeMultiplier": 1.5,
    "drops": [
        {
            "name": "thebetweenlands:log_weedwood",
            "data": 0,
            "type": "WOOD"
        },
		{
            "name": "thebetweenlands:weedwood",
            "data": 0,
            "type": "WOOD"
        },
        {
            "name": "thebetweenlands:leaves_weedwood_tree",
            "data": 0,
            "type": "LEAVES"
        },
        {
            "name": "thebetweenlands:sapling_weedwood",
            "data": 0,
            "type": "SAPLING"
		}
    ],
	"compatibleSoilTags": ["dirt"]
}